…
``` r
newdata = newdata %>% add_predictions(m4, var = "new_pre_num")
#newdata = left_join(newdata, WINov)

newdata
```

    ## # A tibble: 72 x 18
    ##    COUNTY_CODE_003 meanIMP meanADT area_code fips_state area_title
    ##    <chr>             <dbl>   <dbl> <chr>     <chr>      <chr>     
    ##  1 001                7.46   1174. CN550010… 55         Adams Cou…
    ##  2 003               11.9     742. CN550030… 55         Ashland C…
    ##  3 005               23.2    1533. CN550050… 55         Barron Co…
    ##  4 007               64.9    1510. CN550070… 55         Bayfield …
    ##  5 009              174.    13442. CN550090… 55         Brown Cou…
    ##  6 011               31.7    1015. CN550110… 55         Buffalo C…
    ##  7 013               16.9     828. CN550130… 55         Burnett C…
    ##  8 015               55.8    2765. CN550150… 55         Calumet C…
    ##  9 017              112.     2681. CN550170… 55         Chippewa …
    ## 10 019               63.1    1006. CN550190… 55         Clark Cou…
    ## # … with 62 more rows, and 12 more variables: period <date>,
    ## #   labor_force <dbl>, employed <dbl>, unemployed <dbl>,
    ## #   unemployed_rate <dbl>, fips <chr>, pre_unemployed <dbl>,
    ## #   pre_rate <dbl>, Nov_unem <dbl>, Nov_rate <dbl>, new_pre_rate <dbl>,
    ## #   new_pre_num <dbl>
